{
    "use": true,
    "limit": 10,
    "fields": {
        "created_at": {
            "type": "DateTime",
            "view": "DateTime"
        },
        "active_date": {
            "type": "DateTime",
            "handlers": {
                "result": {
                    "params": {
                        "field_from": "active_from",
                        "field_to": "active_to"
                    }
                }
            }
        },
        "active_from": {
            "type": "DateTime",
            "view": "DateTime"
        },
        "active_to": {
            "type": "DateTime",
            "view": "DateTime"
        },
        "author": {
            "view": "RelationFull",
            "handlers": {
                "data": {
                    "fn": "custom.RelationFull",
                    "params": {
                        "filter": "field.category"
                    }
                },
                "result": {
                    "fn": "custom.RelationFull",
                    "params": false
                }
            }
        },
        "categories": {
            "type": "relation"
        }
    },
    "finds": [
        "author",
        "name"
    ],
    "forced": {
        "categories": "hitech"
    }
}
