{
    "fields": {
        "title": {
            "type": "string",
            "nullable": true
        },
        "description": {
            "type": "long_text"
        },
        "content": {
            "type": "long_text",
            "nullable": true
        },
        "active": {
            "type": "boolean",
            "default": true
        }
    }
}
