<?xml version="1.0" encoding="UTF-8"?>
<svg enable-background="new 0 0 910 510" version="1.1" viewBox="0 0 910 510" xml:space="preserve" xmlns="http://www.w3.org/2000/svg">
<style type="text/css">
    .st0{fill:#FFFFFF;}
    .st1{fill:#E6E6E6;}
    .st2{opacity:0.2;fill:#808080;}
    .st3{fill:#056FD2;}
    .st4{opacity:0.2;fill:#4D4D4D;}
    .st5{fill:#FBB03B;}
    .st6{fill:#B3B3B3;}
</style>



            <rect class="st1" x="123.2" y="75" width="4.5" height="328.2"/>
            <rect class="st1" x="184.9" y="75" width="4.5" height="328.2"/>
            <rect class="st1" x="246.6" y="75" width="4.5" height="328.2"/>
            <rect class="st1" x="308.3" y="75" width="4.5" height="328.2"/>
            <rect class="st1" x="369.9" y="75" width="4.5" height="328.2"/>
            <rect class="st1" x="431.6" y="75" width="4.5" height="328.2"/>
            <rect class="st1" x="493.3" y="75" width="4.5" height="328.2"/>
            <rect class="st1" x="555" y="75" width="4.5" height="328.2"/>
            <rect class="st1" x="616.6" y="75" width="4.5" height="328.2"/>
            <rect class="st1" x="678.3" y="75" width="4.5" height="328.2"/>
            <rect class="st1" x="740" y="75" width="4.5" height="328.2"/>
            <rect class="st1" x="801.7" y="75" width="4.5" height="328.2"/>


            <path class="st2" d="m608.9 138.3c-35.1 10.3-69.7 22.8-102.2 39.5-30.1 15.5-58.4 34.6-90.1 46.4-52.5 19.5-110.3 17.4-165.9 24.5-46.6 6-95.9 21.2-127.5 54.2v25.7c16.4-16.7 39.2-27.7 62.5-32.5 34.6-7.2 70.5-2.9 105.6 1.3s71.1 8.1 105.6 0.2c60.6-14 108-62.6 167.7-80 34.6-10.1 71.4-9.2 107.1-14 47.6-6.4 93.8-23.2 134.4-48.7v-51.6c-66.7 4.4-133 16.2-197.2 35z"/>
            <path class="st3" d="m123.2 305.2c-0.6 0-1.1-0.2-1.6-0.6-0.9-0.9-0.9-2.3-0.1-3.2 34.7-36.2 89.2-49.8 128.9-54.8 16.6-2.1 33.7-3.4 50.2-4.7 38.6-3 78.6-6.1 115.2-19.7 21-7.8 40.9-19 60.1-29.9 9.7-5.5 19.7-11.1 29.8-16.3 29-14.9 62.6-27.9 102.6-39.7 64.3-18.9 130.8-30.8 197.8-35.3 1.3-0.1 2.3 0.9 2.4 2.1s-0.9 2.3-2.1 2.4c-66.7 4.5-132.9 16.3-196.8 35.1-39.7 11.7-73 24.6-101.8 39.3-10 5.1-20 10.8-29.6 16.2-19.4 11-39.4 22.3-60.7 30.2-37.2 13.8-77.4 16.9-116.4 20-16.5 1.3-33.5 2.6-50 4.7-38.9 5-92.4 18.3-126.2 53.5-0.5 0.4-1.1 0.7-1.7 0.7z"/>
            <path class="st4" d="m564.6 217.5c-59.7 17.5-107.1 66-167.7 80-34.5 7.9-70.4 4-105.6-0.2-35.1-4.2-71-8.5-105.6-1.3-23.2 4.8-46.1 15.9-62.5 32.5v74.6h683v-248.3c-40.6 25.5-86.8 42.4-134.4 48.7-35.8 4.8-72.5 3.9-107.2 14z"/>
            <path class="st5" d="m123.2 330.9c-0.6 0-1.1-0.2-1.6-0.6-0.9-0.9-0.9-2.3 0-3.2 15.9-16.2 38.5-27.9 63.6-33.2 34.8-7.2 70.8-3 105.7 1.2l0.7 0.1c32.7 3.9 69.8 8.3 104.8 0.2 31.5-7.3 60-24.3 87.6-40.8 25.3-15.1 51.4-30.8 80-39.1 23.1-6.7 47.4-8.7 70.9-10.5 12-0.9 24.5-1.9 36.6-3.5 46.9-6.3 93.1-23 133.5-48.4 1.1-0.7 2.5-0.4 3.1 0.7 0.7 1.1 0.4 2.5-0.7 3.1-41 25.7-87.8 42.7-135.4 49.1-12.2 1.6-24.7 2.6-36.8 3.6-23.3 1.8-47.3 3.7-69.9 10.3-28.1 8.2-54 23.7-79 38.7-27.9 16.7-56.7 33.9-88.9 41.4-35.8 8.3-73.3 3.8-106.4-0.1l-0.7-0.1c-34.5-4.1-70.2-8.3-104.2-1.2-24.2 5-46 16.4-61.3 31.9-0.4 0.1-1 0.4-1.6 0.4z"/>



                <path class="st6" d="m95.6 388c0.6 0 1.2 0.1 1.6 0.4s0.7 0.7 0.9 1.1c0.2 0.5 0.3 1 0.4 1.5s0.1 1.1 0.1 1.6c0 0.6 0 1.1-0.1 1.7-0.1 0.5-0.2 1-0.5 1.4-0.4 0.9-1.2 1.3-2.4 1.4-1.2 0-1.9-0.5-2.4-1.4-0.2-0.4-0.4-0.9-0.4-1.5-0.1-0.5-0.1-1.1-0.1-1.7s0-1.1 0.1-1.7c0.1-0.5 0.2-1 0.4-1.4s0.5-0.8 0.9-1c0.4-0.3 0.9-0.4 1.5-0.4zm2.1 4.5c0-0.5 0-1-0.1-1.4-0.1-0.5-0.2-0.9-0.3-1.2-0.3-0.8-0.9-1.2-1.8-1.2-0.8 0-1.4 0.4-1.7 1.2s-0.4 1.7-0.4 2.7c0 1.2 0.1 2.1 0.5 2.7 0.3 0.7 0.9 1 1.7 1.1 0.5 0 0.8-0.1 1.1-0.4 0.3-0.2 0.5-0.5 0.7-0.9 0.2-0.7 0.4-1.6 0.3-2.6z"/>


                <path class="st6" d="m94.9 328.9h-2.2v-0.5c0.3 0 0.6-0.1 0.9-0.1s0.5-0.1 0.7-0.2 0.4-0.3 0.5-0.5 0.2-0.5 0.3-0.9h0.6v8.9h-0.8v-6.7z"/>
                <path class="st6" d="m101.6 326.6c0.6 0 1.2 0.1 1.6 0.4s0.7 0.7 0.9 1.1c0.2 0.5 0.3 1 0.4 1.5s0.1 1.1 0.1 1.6c0 0.6 0 1.1-0.1 1.7-0.1 0.5-0.2 1-0.5 1.4-0.4 0.9-1.2 1.3-2.4 1.4-1.2 0-1.9-0.5-2.4-1.4-0.2-0.4-0.4-0.9-0.4-1.5-0.1-0.5-0.1-1.1-0.1-1.7s0-1.1 0.1-1.7c0.1-0.5 0.2-1 0.4-1.4s0.5-0.8 0.9-1 0.9-0.4 1.5-0.4zm2.2 4.6c0-0.5 0-1-0.1-1.4-0.1-0.5-0.2-0.9-0.3-1.2-0.3-0.8-0.9-1.2-1.8-1.2-0.8 0-1.4 0.4-1.7 1.2s-0.4 1.7-0.4 2.7c0 1.2 0.1 2.1 0.5 2.7 0.3 0.7 0.9 1 1.7 1.1 0.5 0 0.8-0.1 1.1-0.4 0.3-0.2 0.5-0.5 0.7-0.9 0.2-0.8 0.3-1.7 0.3-2.6z"/>


                <path class="st6" d="m92.9 268.2c0-1.9 1-2.9 2.8-2.9 0.9 0 1.5 0.2 2 0.7 0.4 0.5 0.7 1.1 0.7 1.8 0 0.6-0.1 1.1-0.4 1.5s-0.6 0.7-1 1-0.8 0.5-1.2 0.8c-0.4 0.2-0.8 0.5-1.2 0.7-0.3 0.2-0.5 0.5-0.7 0.7-0.2 0.3-0.3 0.6-0.4 1.1h4.8v0.7h-5.7c0-0.4 0.1-0.8 0.2-1.2s0.3-0.7 0.5-1c0.5-0.5 0.9-1 1.4-1.3s0.9-0.6 1.4-0.9c0.4-0.3 0.8-0.5 1-0.9 0.3-0.3 0.4-0.7 0.4-1.2 0-0.6-0.2-1-0.5-1.4-0.4-0.3-0.8-0.5-1.4-0.5s-1 0.2-1.4 0.7c-0.3 0.4-0.5 1-0.5 1.6h-0.8z"/>
                <path class="st6" d="m102.6 265.3c0.6 0 1.2 0.1 1.6 0.4s0.7 0.7 0.9 1.1c0.2 0.5 0.3 1 0.4 1.5s0.1 1.1 0.1 1.6c0 0.6 0 1.1-0.1 1.7-0.1 0.5-0.2 1-0.5 1.4-0.4 0.9-1.2 1.3-2.4 1.4-1.2 0-1.9-0.5-2.4-1.4-0.2-0.4-0.4-0.9-0.4-1.5-0.1-0.5-0.1-1.1-0.1-1.7s0-1.1 0.1-1.7c0.1-0.5 0.2-1 0.4-1.4s0.5-0.8 0.9-1c0.3-0.3 0.8-0.4 1.5-0.4zm2.1 4.5c0-0.5 0-1-0.1-1.4-0.1-0.5-0.2-0.9-0.3-1.2-0.3-0.8-0.9-1.2-1.8-1.2-0.8 0-1.4 0.4-1.7 1.2s-0.4 1.7-0.4 2.7c0 1.2 0.1 2.1 0.5 2.7 0.3 0.7 0.9 1 1.7 1.1 0.5 0 0.8-0.1 1.1-0.4 0.3-0.2 0.5-0.5 0.7-0.9 0.2-0.8 0.3-1.7 0.3-2.6z"/>


                <path class="st6" d="m94.9 207.9c0.8 0 1.4-0.1 1.8-0.3s0.7-0.7 0.7-1.4c0-0.6-0.2-1-0.5-1.2s-0.8-0.4-1.3-0.4c-0.6 0-1 0.2-1.3 0.5-0.4 0.4-0.5 0.8-0.5 1.4h-0.8c0-0.8 0.3-1.5 0.8-2 0.3-0.2 0.6-0.4 0.9-0.5s0.7-0.1 1-0.1c0.7 0 1.3 0.2 1.8 0.5 0.5 0.4 0.7 0.9 0.7 1.7 0 0.9-0.4 1.6-1.2 2 0.6 0.2 1 0.5 1.3 0.9 0.2 0.4 0.3 0.8 0.3 1.3 0 0.8-0.2 1.4-0.7 1.9s-1.2 0.8-2.1 0.8c-1 0-1.7-0.2-2.2-0.6s-0.8-1.1-0.9-2.1h0.8c0 0.7 0.2 1.2 0.6 1.5 0.4 0.4 0.9 0.5 1.6 0.5 0.6 0 1.2-0.2 1.6-0.6s0.6-0.9 0.6-1.4c0-0.7-0.3-1.2-0.8-1.5-0.2-0.1-0.5-0.2-0.9-0.3-0.3-0.1-0.7-0.1-1.1 0l-0.2-0.6z"/>
                <path class="st6" d="m102.7 203.9c0.6 0 1.2 0.1 1.6 0.4s0.7 0.7 0.9 1.1c0.2 0.5 0.3 1 0.4 1.5s0.1 1.1 0.1 1.6c0 0.6 0 1.1-0.1 1.7-0.1 0.5-0.2 1-0.5 1.4-0.4 0.9-1.2 1.3-2.4 1.4-1.2 0-1.9-0.5-2.4-1.4-0.2-0.4-0.4-0.9-0.4-1.5-0.1-0.5-0.1-1.1-0.1-1.7s0-1.1 0.1-1.7c0.1-0.5 0.2-1 0.4-1.4s0.5-0.8 0.9-1c0.4-0.3 0.9-0.4 1.5-0.4zm2.2 4.5c0-0.5 0-1-0.1-1.4-0.1-0.5-0.2-0.9-0.3-1.2-0.3-0.8-0.9-1.2-1.8-1.2-0.8 0-1.4 0.4-1.7 1.2s-0.4 1.7-0.4 2.7c0 1.2 0.1 2.1 0.5 2.7 0.3 0.7 0.9 1 1.7 1.1 0.5 0 0.8-0.1 1.1-0.4 0.3-0.2 0.5-0.5 0.7-0.9 0.2-0.8 0.3-1.6 0.3-2.6z"/>


                <path class="st6" d="m96.6 149.2h-4v-0.7l4-5.9h0.7v6h1.2v0.7h-1.2v2.2h-0.8v-2.3zm-3.2-0.6h3.2v-4.7l-3.2 4.7z"/>
                <path class="st6" d="m102.7 142.5c0.6 0 1.2 0.1 1.6 0.4s0.7 0.7 0.9 1.1c0.2 0.5 0.3 1 0.4 1.5s0.1 1.1 0.1 1.6c0 0.6 0 1.1-0.1 1.7-0.1 0.5-0.2 1-0.5 1.4-0.4 0.9-1.2 1.3-2.4 1.4-1.2 0-1.9-0.5-2.4-1.4-0.2-0.4-0.4-0.9-0.4-1.5-0.1-0.5-0.1-1.1-0.1-1.7s0-1.1 0.1-1.7c0.1-0.5 0.2-1 0.4-1.4s0.5-0.8 0.9-1c0.4-0.3 0.9-0.4 1.5-0.4zm2.1 4.5c0-0.5 0-1-0.1-1.4-0.1-0.5-0.2-0.9-0.3-1.2-0.3-0.8-0.9-1.2-1.8-1.2-0.8 0-1.4 0.4-1.7 1.2s-0.4 1.7-0.4 2.7c0 1.2 0.1 2.1 0.5 2.7 0.3 0.7 0.9 1 1.7 1.1 0.5 0 0.8-0.1 1.1-0.4 0.3-0.2 0.5-0.5 0.7-0.9 0.2-0.7 0.3-1.6 0.3-2.6z"/>


                <path class="st6" d="m93.5 87.7c0.1 0.6 0.3 1.1 0.7 1.4s0.9 0.5 1.4 0.5c0.7 0 1.2-0.2 1.5-0.7 0.4-0.4 0.5-1 0.6-1.6 0-0.7-0.2-1.2-0.6-1.6s-0.9-0.6-1.6-0.6c-0.8 0-1.4 0.3-1.9 0.9l-0.6-0.2 0.7-4.6h4.3v0.7h-3.6l-0.5 3c0.6-0.4 1.2-0.6 1.9-0.6 0.8 0 1.5 0.3 2 0.8s0.8 1.2 0.8 2.2c0 0.9-0.3 1.7-0.8 2.2s-1.2 0.8-1.9 0.8c-0.8 0-1.5-0.2-2.1-0.6s-0.9-1-1-1.9h0.7z"/>
                <path class="st6" d="m102.7 81.1c0.6 0 1.2 0.1 1.6 0.4s0.7 0.7 0.9 1.1c0.2 0.5 0.3 1 0.4 1.5s0.1 1.1 0.1 1.6c0 0.6 0 1.1-0.1 1.7-0.1 0.5-0.2 1-0.5 1.4-0.4 0.9-1.2 1.3-2.4 1.4-1.2 0-1.9-0.5-2.4-1.4-0.2-0.4-0.4-0.9-0.4-1.5-0.1-0.5-0.1-1.1-0.1-1.7s0-1.1 0.1-1.7c0.1-0.5 0.2-1 0.4-1.4s0.5-0.8 0.9-1 0.9-0.4 1.5-0.4zm2.2 4.6c0-0.5 0-1-0.1-1.4-0.1-0.5-0.2-0.9-0.3-1.2-0.3-0.8-0.9-1.2-1.8-1.2-0.8 0-1.4 0.4-1.7 1.2s-0.4 1.7-0.4 2.7c0 1.2 0.1 2.1 0.5 2.7 0.3 0.7 0.9 1 1.7 1.1 0.5 0 0.8-0.1 1.1-0.4 0.3-0.2 0.5-0.5 0.7-0.9 0.2-0.8 0.3-1.7 0.3-2.6z"/>




                <path class="st6" d="m729 428.8c0-1.9 1-2.9 2.8-2.9 0.9 0 1.5 0.2 2 0.7 0.4 0.5 0.7 1.1 0.7 1.8 0 0.6-0.1 1.1-0.4 1.5s-0.6 0.7-1 1-0.8 0.5-1.2 0.8c-0.4 0.2-0.8 0.5-1.2 0.7-0.3 0.2-0.5 0.5-0.7 0.7-0.2 0.3-0.3 0.6-0.4 1.1h4.8v0.7h-5.7c0-0.4 0.1-0.8 0.2-1.2s0.3-0.7 0.5-1c0.5-0.5 0.9-1 1.4-1.3s0.9-0.6 1.4-0.9c0.4-0.3 0.8-0.5 1-0.9 0.3-0.3 0.4-0.7 0.4-1.2 0-0.6-0.2-1-0.5-1.4-0.4-0.3-0.8-0.5-1.4-0.5s-1 0.2-1.4 0.7c-0.3 0.4-0.5 1-0.5 1.6h-0.8z"/>
                <path class="st6" d="m738.6 425.9c0.6 0 1.2 0.1 1.6 0.4s0.7 0.7 0.9 1.1c0.2 0.5 0.3 1 0.4 1.5s0.1 1.1 0.1 1.6c0 0.6 0 1.1-0.1 1.7-0.1 0.5-0.2 1-0.5 1.4-0.4 0.9-1.2 1.3-2.4 1.4-1.2 0-1.9-0.5-2.4-1.4-0.2-0.4-0.4-0.9-0.4-1.5-0.1-0.5-0.1-1.1-0.1-1.7s0-1.1 0.1-1.7c0.1-0.5 0.2-1 0.4-1.4s0.5-0.8 0.9-1c0.4-0.3 0.9-0.4 1.5-0.4zm2.2 4.5c0-0.5 0-1-0.1-1.4-0.1-0.5-0.2-0.9-0.3-1.2-0.3-0.8-0.9-1.2-1.8-1.2-0.8 0-1.4 0.4-1.7 1.2s-0.4 1.7-0.4 2.7c0 1.2 0.1 2.1 0.5 2.7 0.3 0.7 0.9 1 1.7 1.1 0.5 0 0.8-0.1 1.1-0.4 0.3-0.2 0.5-0.5 0.7-0.9 0.2-0.8 0.3-1.6 0.3-2.6z"/>
                <path class="st6" d="m746 428.2h-2.2v-0.5c0.3 0 0.6-0.1 0.9-0.1s0.5-0.1 0.7-0.2 0.4-0.3 0.5-0.5 0.2-0.5 0.3-0.9h0.6v8.9h-0.8v-6.7z"/>
                <path class="st6" d="m751.4 430c-0.4-0.3-0.7-0.5-0.9-0.8s-0.3-0.6-0.3-1.2 0.3-1.2 0.7-1.6c0.5-0.4 1-0.6 1.7-0.6s1.3 0.2 1.8 0.5 0.8 0.9 0.8 1.7c0 0.9-0.4 1.6-1.2 2 1 0.4 1.5 1.1 1.5 2.2 0 0.9-0.3 1.5-0.8 2s-1.3 0.7-2.2 0.7c-0.7 0-1.3-0.2-1.8-0.7-0.6-0.4-0.9-1.1-0.9-2 0.1-1 0.6-1.8 1.6-2.2zm1.4 0.4c-0.6 0-1.1 0.2-1.5 0.5s-0.6 0.8-0.6 1.5c0 0.6 0.2 1 0.6 1.4s0.9 0.6 1.6 0.6c0.6 0 1.1-0.2 1.5-0.6s0.6-0.8 0.6-1.4-0.2-1.1-0.6-1.4c-0.5-0.4-1-0.6-1.6-0.6zm-0.1-3.8c-0.5 0-0.9 0.1-1.2 0.4s-0.5 0.7-0.5 1.2 0.2 0.9 0.6 1.2 0.8 0.4 1.3 0.4 0.9-0.1 1.2-0.4 0.5-0.7 0.5-1.3c-0.1-1.1-0.7-1.5-1.9-1.5z"/>


                <path class="st6" d="m790.7 428.8c0-1.9 1-2.9 2.8-2.9 0.9 0 1.5 0.2 2 0.7 0.4 0.5 0.7 1.1 0.7 1.8 0 0.6-0.1 1.1-0.4 1.5s-0.6 0.7-1 1-0.8 0.5-1.2 0.8c-0.4 0.2-0.8 0.5-1.2 0.7-0.3 0.2-0.5 0.5-0.7 0.7-0.2 0.3-0.3 0.6-0.4 1.1h4.8v0.7h-5.7c0-0.4 0.1-0.8 0.2-1.2s0.3-0.7 0.5-1c0.5-0.5 0.9-1 1.4-1.3s0.9-0.6 1.4-0.9c0.4-0.3 0.8-0.5 1-0.9 0.3-0.3 0.4-0.7 0.4-1.2 0-0.6-0.2-1-0.5-1.4-0.4-0.3-0.8-0.5-1.4-0.5s-1 0.2-1.4 0.7c-0.3 0.4-0.5 1-0.5 1.6h-0.8z"/>
                <path class="st6" d="m800.3 425.9c0.6 0 1.2 0.1 1.6 0.4s0.7 0.7 0.9 1.1c0.2 0.5 0.3 1 0.4 1.5s0.1 1.1 0.1 1.6c0 0.6 0 1.1-0.1 1.7-0.1 0.5-0.2 1-0.5 1.4-0.4 0.9-1.2 1.3-2.4 1.4-1.2 0-1.9-0.5-2.4-1.4-0.2-0.4-0.4-0.9-0.4-1.5-0.1-0.5-0.1-1.1-0.1-1.7s0-1.1 0.1-1.7c0.1-0.5 0.2-1 0.4-1.4s0.5-0.8 0.9-1c0.4-0.3 0.9-0.4 1.5-0.4zm2.1 4.5c0-0.5 0-1-0.1-1.4-0.1-0.5-0.2-0.9-0.3-1.2-0.3-0.8-0.9-1.2-1.8-1.2-0.8 0-1.4 0.4-1.7 1.2s-0.4 1.7-0.4 2.7c0 1.2 0.1 2.1 0.5 2.7 0.3 0.7 0.9 1 1.7 1.1 0.5 0 0.8-0.1 1.1-0.4 0.3-0.2 0.5-0.5 0.7-0.9 0.2-0.8 0.4-1.6 0.3-2.6z"/>
                <path class="st6" d="m804.8 428.8c0-1.9 1-2.9 2.8-2.9 0.9 0 1.5 0.2 2 0.7 0.4 0.5 0.7 1.1 0.7 1.8 0 0.6-0.1 1.1-0.4 1.5s-0.6 0.7-1 1-0.8 0.5-1.2 0.8c-0.4 0.2-0.8 0.5-1.2 0.7-0.3 0.2-0.5 0.5-0.7 0.7-0.2 0.3-0.3 0.6-0.4 1.1h4.8v0.7h-5.7c0-0.4 0.1-0.8 0.2-1.2s0.3-0.7 0.5-1c0.5-0.5 0.9-1 1.4-1.3s0.9-0.6 1.4-0.9c0.4-0.3 0.8-0.5 1-0.9 0.3-0.3 0.4-0.7 0.4-1.2 0-0.6-0.2-1-0.5-1.4-0.4-0.3-0.8-0.5-1.4-0.5s-1 0.2-1.4 0.7c-0.3 0.4-0.5 1-0.5 1.6h-0.8z"/>
                <path class="st6" d="m814.4 425.9c0.6 0 1.2 0.1 1.6 0.4s0.7 0.7 0.9 1.1c0.2 0.5 0.3 1 0.4 1.5s0.1 1.1 0.1 1.6c0 0.6 0 1.1-0.1 1.7-0.1 0.5-0.2 1-0.5 1.4-0.4 0.9-1.2 1.3-2.4 1.4-1.2 0-1.9-0.5-2.4-1.4-0.2-0.4-0.4-0.9-0.4-1.5-0.1-0.5-0.1-1.1-0.1-1.7s0-1.1 0.1-1.7c0.1-0.5 0.2-1 0.4-1.4s0.5-0.8 0.9-1c0.4-0.3 0.9-0.4 1.5-0.4zm2.2 4.5c0-0.5 0-1-0.1-1.4-0.1-0.5-0.2-0.9-0.3-1.2-0.3-0.8-0.9-1.2-1.8-1.2-0.8 0-1.4 0.4-1.7 1.2s-0.4 1.7-0.4 2.7c0 1.2 0.1 2.1 0.5 2.7 0.3 0.7 0.9 1 1.7 1.1 0.5 0 0.8-0.1 1.1-0.4 0.3-0.2 0.5-0.5 0.7-0.9 0.2-0.8 0.3-1.6 0.3-2.6z"/>


                <path class="st6" d="m667.3 428.8c0-1.9 1-2.9 2.8-2.9 0.9 0 1.5 0.2 2 0.7 0.4 0.5 0.7 1.1 0.7 1.8 0 0.6-0.1 1.1-0.4 1.5s-0.6 0.7-1 1-0.8 0.5-1.2 0.8c-0.4 0.2-0.8 0.5-1.2 0.7-0.3 0.2-0.5 0.5-0.7 0.7-0.2 0.3-0.3 0.6-0.4 1.1h4.8v0.7h-5.7c0-0.4 0.1-0.8 0.2-1.2s0.3-0.7 0.5-1c0.5-0.5 0.9-1 1.4-1.3s0.9-0.6 1.4-0.9c0.4-0.3 0.8-0.5 1-0.9 0.3-0.3 0.4-0.7 0.4-1.2 0-0.6-0.2-1-0.5-1.4-0.4-0.3-0.8-0.5-1.4-0.5s-1 0.2-1.4 0.7c-0.3 0.4-0.5 1-0.5 1.6h-0.8z"/>
                <path class="st6" d="m676.9 425.9c0.6 0 1.2 0.1 1.6 0.4s0.7 0.7 0.9 1.1c0.2 0.5 0.3 1 0.4 1.5s0.1 1.1 0.1 1.6c0 0.6 0 1.1-0.1 1.7-0.1 0.5-0.2 1-0.5 1.4-0.4 0.9-1.2 1.3-2.4 1.4-1.2 0-1.9-0.5-2.4-1.4-0.2-0.4-0.4-0.9-0.4-1.5-0.1-0.5-0.1-1.1-0.1-1.7s0-1.1 0.1-1.7c0.1-0.5 0.2-1 0.4-1.4s0.5-0.8 0.9-1c0.4-0.3 0.9-0.4 1.5-0.4zm2.2 4.5c0-0.5 0-1-0.1-1.4-0.1-0.5-0.2-0.9-0.3-1.2-0.3-0.8-0.9-1.2-1.8-1.2-0.8 0-1.4 0.4-1.7 1.2s-0.4 1.7-0.4 2.7c0 1.2 0.1 2.1 0.5 2.7 0.3 0.7 0.9 1 1.7 1.1 0.5 0 0.8-0.1 1.1-0.4 0.3-0.2 0.5-0.5 0.7-0.9 0.2-0.8 0.3-1.6 0.3-2.6z"/>
                <path class="st6" d="m684.3 428.2h-2.2v-0.5c0.3 0 0.6-0.1 0.9-0.1s0.5-0.1 0.7-0.2 0.4-0.3 0.5-0.5 0.2-0.5 0.3-0.9h0.6v8.9h-0.8v-6.7z"/>
                <path class="st6" d="m693 428.1c-0.2-1-0.7-1.5-1.7-1.5-0.5 0-0.9 0.1-1.2 0.4s-0.6 0.6-0.7 1c-0.2 0.4-0.3 0.8-0.3 1.3-0.1 0.5-0.1 0.9-0.2 1.4 0.1-0.2 0.3-0.4 0.4-0.5 0.1-0.2 0.3-0.3 0.5-0.4l0.6-0.3c0.2-0.1 0.5-0.1 0.8-0.1 1.8 0 2.7 1 2.8 2.9 0 1.9-1 2.9-2.8 2.9-0.9 0-1.6-0.3-2.2-1s-0.9-1.8-0.9-3.3c0-0.5 0.1-1.1 0.2-1.7s0.2-1.1 0.5-1.6c0.2-0.5 0.6-0.9 1-1.2s0.9-0.4 1.5-0.4c0.7 0 1.3 0.2 1.7 0.6 0.5 0.4 0.7 0.9 0.8 1.6h-0.8zm-1.8 1.8c-0.6 0-1.1 0.2-1.4 0.7-0.4 0.4-0.5 0.9-0.5 1.6 0 0.5 0.1 1 0.5 1.5 0.3 0.5 0.8 0.7 1.5 0.7 0.4 0 0.7-0.1 0.9-0.2 0.3-0.1 0.5-0.3 0.6-0.5 0.3-0.5 0.4-1 0.4-1.5 0-1.6-0.7-2.3-2-2.3z"/>


                <path class="st6" d="m605.6 428.8c0-1.9 1-2.9 2.8-2.9 0.9 0 1.5 0.2 2 0.7 0.4 0.5 0.7 1.1 0.7 1.8 0 0.6-0.1 1.1-0.4 1.5s-0.6 0.7-1 1-0.8 0.5-1.2 0.8c-0.4 0.2-0.8 0.5-1.2 0.7-0.3 0.2-0.5 0.5-0.7 0.7-0.2 0.3-0.3 0.6-0.4 1.1h4.8v0.7h-5.7c0-0.4 0.1-0.8 0.2-1.2s0.3-0.7 0.5-1c0.5-0.5 0.9-1 1.4-1.3s0.9-0.6 1.4-0.9c0.4-0.3 0.8-0.5 1-0.9 0.3-0.3 0.4-0.7 0.4-1.2 0-0.6-0.2-1-0.5-1.4-0.4-0.3-0.8-0.5-1.4-0.5s-1 0.2-1.4 0.7c-0.3 0.4-0.5 1-0.5 1.6h-0.8z"/>
                <path class="st6" d="m615.3 425.9c0.6 0 1.2 0.1 1.6 0.4s0.7 0.7 0.9 1.1c0.2 0.5 0.3 1 0.4 1.5s0.1 1.1 0.1 1.6c0 0.6 0 1.1-0.1 1.7-0.1 0.5-0.2 1-0.5 1.4-0.4 0.9-1.2 1.3-2.4 1.4-1.2 0-1.9-0.5-2.4-1.4-0.2-0.4-0.4-0.9-0.4-1.5-0.1-0.5-0.1-1.1-0.1-1.7s0-1.1 0.1-1.7c0.1-0.5 0.2-1 0.4-1.4s0.5-0.8 0.9-1c0.4-0.3 0.9-0.4 1.5-0.4zm2.1 4.5c0-0.5 0-1-0.1-1.4-0.1-0.5-0.2-0.9-0.3-1.2-0.3-0.8-0.9-1.2-1.8-1.2-0.8 0-1.4 0.4-1.7 1.2s-0.4 1.7-0.4 2.7c0 1.2 0.1 2.1 0.5 2.7 0.3 0.7 0.9 1 1.7 1.1 0.5 0 0.8-0.1 1.1-0.4 0.3-0.2 0.5-0.5 0.7-0.9 0.2-0.8 0.3-1.6 0.3-2.6z"/>
                <path class="st6" d="m622.6 428.2h-2.2v-0.5c0.3 0 0.6-0.1 0.9-0.1s0.5-0.1 0.7-0.2 0.4-0.3 0.5-0.5 0.2-0.5 0.3-0.9h0.6v8.9h-0.8v-6.7z"/>
                <path class="st6" d="m630.4 432.6h-4v-0.7l4-5.9h0.7v6h1.2v0.7h-1.2v2.2h-0.8v-2.3zm-3.2-0.7h3.2v-4.7l-3.2 4.7z"/>


                <path class="st6" d="m543.9 428.8c0-1.9 1-2.9 2.8-2.9 0.9 0 1.5 0.2 2 0.7 0.4 0.5 0.7 1.1 0.7 1.8 0 0.6-0.1 1.1-0.4 1.5s-0.6 0.7-1 1-0.8 0.5-1.2 0.8c-0.4 0.2-0.8 0.5-1.2 0.7-0.3 0.2-0.5 0.5-0.7 0.7-0.2 0.3-0.3 0.6-0.4 1.1h4.8v0.7h-5.7c0-0.4 0.1-0.8 0.2-1.2s0.3-0.7 0.5-1c0.5-0.5 0.9-1 1.4-1.3s0.9-0.6 1.4-0.9c0.4-0.3 0.8-0.5 1-0.9 0.3-0.3 0.4-0.7 0.4-1.2 0-0.6-0.2-1-0.5-1.4-0.4-0.3-0.8-0.5-1.4-0.5s-1 0.2-1.4 0.7c-0.3 0.4-0.5 1-0.5 1.6h-0.8z"/>
                <path class="st6" d="m553.6 425.9c0.6 0 1.2 0.1 1.6 0.4s0.7 0.7 0.9 1.1c0.2 0.5 0.3 1 0.4 1.5s0.1 1.1 0.1 1.6c0 0.6 0 1.1-0.1 1.7-0.1 0.5-0.2 1-0.5 1.4-0.4 0.9-1.2 1.3-2.4 1.4-1.2 0-1.9-0.5-2.4-1.4-0.2-0.4-0.4-0.9-0.4-1.5-0.1-0.5-0.1-1.1-0.1-1.7s0-1.1 0.1-1.7c0.1-0.5 0.2-1 0.4-1.4s0.5-0.8 0.9-1c0.4-0.3 0.9-0.4 1.5-0.4zm2.1 4.5c0-0.5 0-1-0.1-1.4-0.1-0.5-0.2-0.9-0.3-1.2-0.3-0.8-0.9-1.2-1.8-1.2-0.8 0-1.4 0.4-1.7 1.2s-0.4 1.7-0.4 2.7c0 1.2 0.1 2.1 0.5 2.7 0.3 0.7 0.9 1 1.7 1.1 0.5 0 0.8-0.1 1.1-0.4 0.3-0.2 0.5-0.5 0.7-0.9 0.2-0.8 0.4-1.6 0.3-2.6z"/>
                <path class="st6" d="m561 428.2h-2.2v-0.5c0.3 0 0.6-0.1 0.9-0.1s0.5-0.1 0.7-0.2 0.4-0.3 0.5-0.5 0.2-0.5 0.3-0.9h0.6v8.9h-0.8v-6.7z"/>
                <path class="st6" d="m565.1 428.8c0-1.9 1-2.9 2.8-2.9 0.9 0 1.5 0.2 2 0.7 0.4 0.5 0.7 1.1 0.7 1.8 0 0.6-0.1 1.1-0.4 1.5s-0.6 0.7-1 1-0.8 0.5-1.2 0.8c-0.4 0.2-0.8 0.5-1.2 0.7-0.3 0.2-0.5 0.5-0.7 0.7-0.2 0.3-0.3 0.6-0.4 1.1h4.8v0.7h-5.7c0-0.4 0.1-0.8 0.2-1.2s0.3-0.7 0.5-1c0.5-0.5 0.9-1 1.4-1.3s0.9-0.6 1.4-0.9c0.4-0.3 0.8-0.5 1-0.9 0.3-0.3 0.4-0.7 0.4-1.2 0-0.6-0.2-1-0.5-1.4-0.4-0.3-0.8-0.5-1.4-0.5s-1 0.2-1.4 0.7c-0.3 0.4-0.5 1-0.5 1.6h-0.8z"/>


                <path class="st6" d="m482.3 428.8c0-1.9 1-2.9 2.8-2.9 0.9 0 1.5 0.2 2 0.7 0.4 0.5 0.7 1.1 0.7 1.8 0 0.6-0.1 1.1-0.4 1.5s-0.6 0.7-1 1-0.8 0.5-1.2 0.8c-0.4 0.2-0.8 0.5-1.2 0.7-0.3 0.2-0.5 0.5-0.7 0.7-0.2 0.3-0.3 0.6-0.4 1.1h4.8v0.7h-5.7c0-0.4 0.1-0.8 0.2-1.2s0.3-0.7 0.5-1c0.5-0.5 0.9-1 1.4-1.3s0.9-0.6 1.4-0.9c0.4-0.3 0.8-0.5 1-0.9 0.3-0.3 0.4-0.7 0.4-1.2 0-0.6-0.2-1-0.5-1.4-0.4-0.3-0.8-0.5-1.4-0.5s-1 0.2-1.4 0.7c-0.3 0.4-0.5 1-0.5 1.6h-0.8z"/>
                <path class="st6" d="m491.9 425.9c0.6 0 1.2 0.1 1.6 0.4s0.7 0.7 0.9 1.1c0.2 0.5 0.3 1 0.4 1.5s0.1 1.1 0.1 1.6c0 0.6 0 1.1-0.1 1.7-0.1 0.5-0.2 1-0.5 1.4-0.4 0.9-1.2 1.3-2.4 1.4-1.2 0-1.9-0.5-2.4-1.4-0.2-0.4-0.4-0.9-0.4-1.5-0.1-0.5-0.1-1.1-0.1-1.7s0-1.1 0.1-1.7c0.1-0.5 0.2-1 0.4-1.4s0.5-0.8 0.9-1c0.4-0.3 0.9-0.4 1.5-0.4zm2.2 4.5c0-0.5 0-1-0.1-1.4-0.1-0.5-0.2-0.9-0.3-1.2-0.3-0.8-0.9-1.2-1.8-1.2-0.8 0-1.4 0.4-1.7 1.2s-0.4 1.7-0.4 2.7c0 1.2 0.1 2.1 0.5 2.7 0.3 0.7 0.9 1 1.7 1.1 0.5 0 0.8-0.1 1.1-0.4 0.3-0.2 0.5-0.5 0.7-0.9 0.2-0.8 0.3-1.6 0.3-2.6z"/>
                <path class="st6" d="m499.3 428.2h-2.3v-0.5c0.3 0 0.6-0.1 0.9-0.1s0.5-0.1 0.7-0.2 0.4-0.3 0.5-0.5 0.2-0.5 0.3-0.9h0.6v8.9h-0.8v-6.7z"/>
                <path class="st6" d="m506 425.9c0.6 0 1.2 0.1 1.6 0.4s0.7 0.7 0.9 1.1c0.2 0.5 0.3 1 0.4 1.5s0.1 1.1 0.1 1.6c0 0.6 0 1.1-0.1 1.7-0.1 0.5-0.2 1-0.5 1.4-0.4 0.9-1.2 1.3-2.4 1.4-1.2 0-1.9-0.5-2.4-1.4-0.2-0.4-0.4-0.9-0.4-1.5-0.1-0.5-0.1-1.1-0.1-1.7s0-1.1 0.1-1.7c0.1-0.5 0.2-1 0.4-1.4s0.5-0.8 0.9-1c0.4-0.3 0.9-0.4 1.5-0.4zm2.2 4.5c0-0.5 0-1-0.1-1.4-0.1-0.5-0.2-0.9-0.3-1.2-0.3-0.8-0.9-1.2-1.8-1.2-0.8 0-1.4 0.4-1.7 1.2s-0.4 1.7-0.4 2.7c0 1.2 0.1 2.1 0.5 2.7 0.3 0.7 0.9 1 1.7 1.1 0.5 0 0.8-0.1 1.1-0.4 0.3-0.2 0.5-0.5 0.7-0.9 0.2-0.8 0.3-1.6 0.3-2.6z"/>


                <path class="st6" d="m420.6 428.8c0-1.9 1-2.9 2.8-2.9 0.9 0 1.5 0.2 2 0.7 0.4 0.5 0.7 1.1 0.7 1.8 0 0.6-0.1 1.1-0.4 1.5s-0.6 0.7-1 1-0.8 0.5-1.2 0.8c-0.4 0.2-0.8 0.5-1.2 0.7-0.3 0.2-0.5 0.5-0.7 0.7-0.2 0.3-0.3 0.6-0.4 1.1h4.8v0.7h-5.7c0-0.4 0.1-0.8 0.2-1.2s0.3-0.7 0.5-1c0.5-0.5 0.9-1 1.4-1.3s0.9-0.6 1.4-0.9c0.4-0.3 0.8-0.5 1-0.9 0.3-0.3 0.4-0.7 0.4-1.2 0-0.6-0.2-1-0.5-1.4-0.4-0.3-0.8-0.5-1.4-0.5s-1 0.2-1.4 0.7c-0.3 0.4-0.5 1-0.5 1.6h-0.8z"/>
                <path class="st6" d="m430.2 425.9c0.6 0 1.2 0.1 1.6 0.4s0.7 0.7 0.9 1.1c0.2 0.5 0.3 1 0.4 1.5s0.1 1.1 0.1 1.6c0 0.6 0 1.1-0.1 1.7-0.1 0.5-0.2 1-0.5 1.4-0.4 0.9-1.2 1.3-2.4 1.4-1.2 0-1.9-0.5-2.4-1.4-0.2-0.4-0.4-0.9-0.4-1.5-0.1-0.5-0.1-1.1-0.1-1.7s0-1.1 0.1-1.7c0.1-0.5 0.2-1 0.4-1.4s0.5-0.8 0.9-1c0.4-0.3 0.9-0.4 1.5-0.4zm2.2 4.5c0-0.5 0-1-0.1-1.4-0.1-0.5-0.2-0.9-0.3-1.2-0.3-0.8-0.9-1.2-1.8-1.2-0.8 0-1.4 0.4-1.7 1.2s-0.4 1.7-0.4 2.7c0 1.2 0.1 2.1 0.5 2.7 0.3 0.7 0.9 1 1.7 1.1 0.5 0 0.8-0.1 1.1-0.4 0.3-0.2 0.5-0.5 0.7-0.9 0.2-0.8 0.3-1.6 0.3-2.6z"/>
                <path class="st6" d="m437.3 425.9c0.6 0 1.2 0.1 1.6 0.4s0.7 0.7 0.9 1.1c0.2 0.5 0.3 1 0.4 1.5s0.1 1.1 0.1 1.6c0 0.6 0 1.1-0.1 1.7-0.1 0.5-0.2 1-0.5 1.4-0.4 0.9-1.2 1.3-2.4 1.4-1.2 0-1.9-0.5-2.4-1.4-0.2-0.4-0.4-0.9-0.4-1.5-0.1-0.5-0.1-1.1-0.1-1.7s0-1.1 0.1-1.7c0.1-0.5 0.2-1 0.4-1.4s0.5-0.8 0.9-1c0.4-0.3 0.9-0.4 1.5-0.4zm2.1 4.5c0-0.5 0-1-0.1-1.4-0.1-0.5-0.2-0.9-0.3-1.2-0.3-0.8-0.9-1.2-1.8-1.2-0.8 0-1.4 0.4-1.7 1.2s-0.4 1.7-0.4 2.7c0 1.2 0.1 2.1 0.5 2.7 0.3 0.7 0.9 1 1.7 1.1 0.5 0 0.8-0.1 1.1-0.4 0.3-0.2 0.5-0.5 0.7-0.9 0.2-0.8 0.4-1.6 0.3-2.6z"/>
                <path class="st6" d="m443 430c-0.4-0.3-0.7-0.5-0.9-0.8s-0.3-0.6-0.3-1.2 0.3-1.2 0.7-1.6c0.5-0.4 1-0.6 1.7-0.6s1.3 0.2 1.8 0.5 0.8 0.9 0.8 1.7c0 0.9-0.4 1.6-1.2 2 1 0.4 1.5 1.1 1.5 2.2 0 0.9-0.3 1.5-0.8 2s-1.3 0.7-2.2 0.7c-0.7 0-1.3-0.2-1.8-0.7-0.6-0.4-0.9-1.1-0.9-2 0.1-1 0.6-1.8 1.6-2.2zm1.4 0.4c-0.6 0-1.1 0.2-1.5 0.5s-0.6 0.8-0.6 1.5c0 0.6 0.2 1 0.6 1.4s0.9 0.6 1.6 0.6c0.6 0 1.1-0.2 1.5-0.6s0.6-0.8 0.6-1.4-0.2-1.1-0.6-1.4c-0.5-0.4-1-0.6-1.6-0.6zm-0.1-3.8c-0.5 0-0.9 0.1-1.2 0.4s-0.5 0.7-0.5 1.2 0.2 0.9 0.6 1.2 0.8 0.4 1.3 0.4 0.9-0.1 1.2-0.4 0.5-0.7 0.5-1.3c-0.1-1.1-0.7-1.5-1.9-1.5z"/>


                <path class="st6" d="m358.9 428.8c0-1.9 1-2.9 2.8-2.9 0.9 0 1.5 0.2 2 0.7 0.4 0.5 0.7 1.1 0.7 1.8 0 0.6-0.1 1.1-0.4 1.5s-0.6 0.7-1 1-0.8 0.5-1.2 0.8c-0.4 0.2-0.8 0.5-1.2 0.7-0.3 0.2-0.5 0.5-0.7 0.7-0.2 0.3-0.3 0.6-0.4 1.1h4.8v0.7h-5.7c0-0.4 0.1-0.8 0.2-1.2s0.3-0.7 0.5-1c0.5-0.5 0.9-1 1.4-1.3s0.9-0.6 1.4-0.9c0.4-0.3 0.8-0.5 1-0.9 0.3-0.3 0.4-0.7 0.4-1.2 0-0.6-0.2-1-0.5-1.4-0.4-0.3-0.8-0.5-1.4-0.5s-1 0.2-1.4 0.7c-0.3 0.4-0.5 1-0.5 1.6h-0.8z"/>
                <path class="st6" d="m368.6 425.9c0.6 0 1.2 0.1 1.6 0.4s0.7 0.7 0.9 1.1c0.2 0.5 0.3 1 0.4 1.5s0.1 1.1 0.1 1.6c0 0.6 0 1.1-0.1 1.7-0.1 0.5-0.2 1-0.5 1.4-0.4 0.9-1.2 1.3-2.4 1.4-1.2 0-1.9-0.5-2.4-1.4-0.2-0.4-0.4-0.9-0.4-1.5-0.1-0.5-0.1-1.1-0.1-1.7s0-1.1 0.1-1.7c0.1-0.5 0.2-1 0.4-1.4s0.5-0.8 0.9-1c0.4-0.3 0.9-0.4 1.5-0.4zm2.1 4.5c0-0.5 0-1-0.1-1.4-0.1-0.5-0.2-0.9-0.3-1.2-0.3-0.8-0.9-1.2-1.8-1.2-0.8 0-1.4 0.4-1.7 1.2s-0.4 1.7-0.4 2.7c0 1.2 0.1 2.1 0.5 2.7 0.3 0.7 0.9 1 1.7 1.1 0.5 0 0.8-0.1 1.1-0.4 0.3-0.2 0.5-0.5 0.7-0.9 0.2-0.8 0.3-1.6 0.3-2.6z"/>
                <path class="st6" d="m375.6 425.9c0.6 0 1.2 0.1 1.6 0.4s0.7 0.7 0.9 1.1c0.2 0.5 0.3 1 0.4 1.5s0.1 1.1 0.1 1.6c0 0.6 0 1.1-0.1 1.7-0.1 0.5-0.2 1-0.5 1.4-0.4 0.9-1.2 1.3-2.4 1.4-1.2 0-1.9-0.5-2.4-1.4-0.2-0.4-0.4-0.9-0.4-1.5-0.1-0.5-0.1-1.1-0.1-1.7s0-1.1 0.1-1.7c0.1-0.5 0.2-1 0.4-1.4s0.5-0.8 0.9-1c0.4-0.3 0.9-0.4 1.5-0.4zm2.2 4.5c0-0.5 0-1-0.1-1.4-0.1-0.5-0.2-0.9-0.3-1.2-0.3-0.8-0.9-1.2-1.8-1.2-0.8 0-1.4 0.4-1.7 1.2s-0.4 1.7-0.4 2.7c0 1.2 0.1 2.1 0.5 2.7 0.3 0.7 0.9 1 1.7 1.1 0.5 0 0.8-0.1 1.1-0.4 0.3-0.2 0.5-0.5 0.7-0.9 0.2-0.8 0.3-1.6 0.3-2.6z"/>
                <path class="st6" d="m384.7 428.1c-0.2-1-0.7-1.5-1.7-1.5-0.5 0-0.9 0.1-1.2 0.4s-0.6 0.6-0.7 1c-0.2 0.4-0.3 0.8-0.3 1.3-0.1 0.5-0.1 0.9-0.2 1.4 0.1-0.2 0.3-0.4 0.4-0.5 0.1-0.2 0.3-0.3 0.5-0.4l0.6-0.3c0.2-0.1 0.5-0.1 0.8-0.1 1.8 0 2.7 1 2.8 2.9 0 1.9-1 2.9-2.8 2.9-0.9 0-1.6-0.3-2.2-1s-0.9-1.8-0.9-3.3c0-0.5 0.1-1.1 0.2-1.7s0.2-1.1 0.5-1.6c0.2-0.5 0.6-0.9 1-1.2s0.9-0.4 1.5-0.4c0.7 0 1.3 0.2 1.7 0.6 0.5 0.4 0.7 0.9 0.8 1.6h-0.8zm-1.9 1.8c-0.6 0-1.1 0.2-1.4 0.7-0.4 0.4-0.5 0.9-0.5 1.6 0 0.5 0.1 1 0.5 1.5 0.3 0.5 0.8 0.7 1.5 0.7 0.4 0 0.7-0.1 0.9-0.2 0.3-0.1 0.5-0.3 0.6-0.5 0.3-0.5 0.4-1 0.4-1.5 0-1.6-0.6-2.3-2-2.3z"/>


                <path class="st6" d="m297.2 428.8c0-1.9 1-2.9 2.8-2.9 0.9 0 1.5 0.2 2 0.7 0.4 0.5 0.7 1.1 0.7 1.8 0 0.6-0.1 1.1-0.4 1.5s-0.6 0.7-1 1-0.8 0.5-1.2 0.8c-0.4 0.2-0.8 0.5-1.2 0.7-0.3 0.2-0.5 0.5-0.7 0.7-0.2 0.3-0.3 0.6-0.4 1.1h4.8v0.7h-5.6c0-0.4 0.1-0.8 0.2-1.2s0.3-0.7 0.5-1c0.5-0.5 0.9-1 1.4-1.3s0.9-0.6 1.4-0.9c0.4-0.3 0.8-0.5 1-0.9 0.3-0.3 0.4-0.7 0.4-1.2 0-0.6-0.2-1-0.5-1.4-0.4-0.3-0.8-0.5-1.4-0.5s-1 0.2-1.4 0.7c-0.3 0.4-0.5 1-0.5 1.6h-0.9z"/>
                <path class="st6" d="m306.9 425.9c0.6 0 1.2 0.1 1.6 0.4s0.7 0.7 0.9 1.1c0.2 0.5 0.3 1 0.4 1.5s0.1 1.1 0.1 1.6c0 0.6 0 1.1-0.1 1.7-0.1 0.5-0.2 1-0.5 1.4-0.4 0.9-1.2 1.3-2.4 1.4-1.2 0-1.9-0.5-2.4-1.4-0.2-0.4-0.4-0.9-0.4-1.5-0.1-0.5-0.1-1.1-0.1-1.7s0-1.1 0.1-1.7c0.1-0.5 0.2-1 0.4-1.4s0.5-0.8 0.9-1c0.4-0.3 0.9-0.4 1.5-0.4zm2.1 4.5c0-0.5 0-1-0.1-1.4-0.1-0.5-0.2-0.9-0.3-1.2-0.3-0.8-0.9-1.2-1.8-1.2-0.8 0-1.4 0.4-1.7 1.2s-0.4 1.7-0.4 2.7c0 1.2 0.1 2.1 0.5 2.7 0.3 0.7 0.9 1 1.7 1.1 0.5 0 0.8-0.1 1.1-0.4 0.3-0.2 0.5-0.5 0.7-0.9 0.2-0.8 0.3-1.6 0.3-2.6z"/>
                <path class="st6" d="m313.9 425.9c0.6 0 1.2 0.1 1.6 0.4s0.7 0.7 0.9 1.1c0.2 0.5 0.3 1 0.4 1.5s0.1 1.1 0.1 1.6c0 0.6 0 1.1-0.1 1.7-0.1 0.5-0.2 1-0.5 1.4-0.4 0.9-1.2 1.3-2.4 1.4-1.2 0-1.9-0.5-2.4-1.4-0.2-0.4-0.4-0.9-0.4-1.5-0.1-0.5-0.1-1.1-0.1-1.7s0-1.1 0.1-1.7c0.1-0.5 0.2-1 0.4-1.4s0.5-0.8 0.9-1c0.4-0.3 0.9-0.4 1.5-0.4zm2.2 4.5c0-0.5 0-1-0.1-1.4-0.1-0.5-0.2-0.9-0.3-1.2-0.3-0.8-0.9-1.2-1.8-1.2-0.8 0-1.4 0.4-1.7 1.2s-0.4 1.7-0.4 2.7c0 1.2 0.1 2.1 0.5 2.7 0.3 0.7 0.9 1 1.7 1.1 0.5 0 0.8-0.1 1.1-0.4 0.3-0.2 0.5-0.5 0.7-0.9 0.2-0.8 0.3-1.6 0.3-2.6z"/>
                <path class="st6" d="m322 432.6h-4v-0.7l4-5.9h0.7v6h1.2v0.7h-1.2v2.2h-0.7v-2.3zm-3.2-0.7h3.2v-4.7l-3.2 4.7z"/>


                <path class="st6" d="m235.6 428.8c0-1.9 1-2.9 2.8-2.9 0.9 0 1.5 0.2 2 0.7 0.4 0.5 0.7 1.1 0.7 1.8 0 0.6-0.1 1.1-0.4 1.5s-0.6 0.7-1 1-0.8 0.5-1.2 0.8c-0.4 0.2-0.8 0.5-1.2 0.7-0.3 0.2-0.5 0.5-0.7 0.7-0.2 0.3-0.3 0.6-0.4 1.1h4.8v0.7h-5.7c0-0.4 0.1-0.8 0.2-1.2s0.3-0.7 0.5-1c0.5-0.5 0.9-1 1.4-1.3s0.9-0.6 1.4-0.9c0.4-0.3 0.8-0.5 1-0.9 0.3-0.3 0.4-0.7 0.4-1.2 0-0.6-0.2-1-0.5-1.4-0.4-0.3-0.8-0.5-1.4-0.5s-1 0.2-1.4 0.7c-0.3 0.4-0.5 1-0.5 1.6h-0.8z"/>
                <path class="st6" d="m245.2 425.9c0.6 0 1.2 0.1 1.6 0.4s0.7 0.7 0.9 1.1c0.2 0.5 0.3 1 0.4 1.5s0.1 1.1 0.1 1.6c0 0.6 0 1.1-0.1 1.7-0.1 0.5-0.2 1-0.5 1.4-0.4 0.9-1.2 1.3-2.4 1.4-1.2 0-1.9-0.5-2.4-1.4-0.2-0.4-0.4-0.9-0.4-1.5-0.1-0.5-0.1-1.1-0.1-1.7s0-1.1 0.1-1.7c0.1-0.5 0.2-1 0.4-1.4s0.5-0.8 0.9-1c0.4-0.3 0.9-0.4 1.5-0.4zm2.2 4.5c0-0.5 0-1-0.1-1.4-0.1-0.5-0.2-0.9-0.3-1.2-0.3-0.8-0.9-1.2-1.8-1.2-0.8 0-1.4 0.4-1.7 1.2s-0.4 1.7-0.4 2.7c0 1.2 0.1 2.1 0.5 2.7 0.3 0.7 0.9 1 1.7 1.1 0.5 0 0.8-0.1 1.1-0.4 0.3-0.2 0.5-0.5 0.7-0.9 0.2-0.8 0.3-1.6 0.3-2.6z"/>
                <path class="st6" d="m252.3 425.9c0.6 0 1.2 0.1 1.6 0.4s0.7 0.7 0.9 1.1c0.2 0.5 0.3 1 0.4 1.5s0.1 1.1 0.1 1.6c0 0.6 0 1.1-0.1 1.7-0.1 0.5-0.2 1-0.5 1.4-0.4 0.9-1.2 1.3-2.4 1.4-1.2 0-1.9-0.5-2.4-1.4-0.2-0.4-0.4-0.9-0.4-1.5-0.1-0.5-0.1-1.1-0.1-1.7s0-1.1 0.1-1.7c0.1-0.5 0.2-1 0.4-1.4s0.5-0.8 0.9-1c0.4-0.3 0.9-0.4 1.5-0.4zm2.1 4.5c0-0.5 0-1-0.1-1.4-0.1-0.5-0.2-0.9-0.3-1.2-0.3-0.8-0.9-1.2-1.8-1.2-0.8 0-1.4 0.4-1.7 1.2s-0.4 1.7-0.4 2.7c0 1.2 0.1 2.1 0.5 2.7 0.3 0.7 0.9 1 1.7 1.1 0.5 0 0.8-0.1 1.1-0.4 0.3-0.2 0.5-0.5 0.7-0.9 0.2-0.8 0.3-1.6 0.3-2.6z"/>
                <path class="st6" d="m256.8 428.8c0-1.9 1-2.9 2.8-2.9 0.9 0 1.5 0.2 2 0.7 0.4 0.5 0.7 1.1 0.7 1.8 0 0.6-0.1 1.1-0.4 1.5s-0.6 0.7-1 1-0.8 0.5-1.2 0.8c-0.4 0.2-0.8 0.5-1.2 0.7-0.3 0.2-0.5 0.5-0.7 0.7-0.2 0.3-0.3 0.6-0.4 1.1h4.8v0.7h-5.7c0-0.4 0.1-0.8 0.2-1.2s0.3-0.7 0.5-1c0.5-0.5 0.9-1 1.4-1.3s0.9-0.6 1.4-0.9c0.4-0.3 0.8-0.5 1-0.9 0.3-0.3 0.4-0.7 0.4-1.2 0-0.6-0.2-1-0.5-1.4-0.4-0.3-0.8-0.5-1.4-0.5s-1 0.2-1.4 0.7c-0.3 0.4-0.5 1-0.5 1.6h-0.8z"/>


                <path class="st6" d="m173.9 428.8c0-1.9 1-2.9 2.8-2.9 0.9 0 1.5 0.2 2 0.7 0.4 0.5 0.7 1.1 0.7 1.8 0 0.6-0.1 1.1-0.4 1.5s-0.6 0.7-1 1-0.8 0.5-1.2 0.8c-0.4 0.2-0.8 0.5-1.2 0.7-0.3 0.2-0.5 0.5-0.7 0.7-0.2 0.3-0.3 0.6-0.4 1.1h4.8v0.7h-5.7c0-0.4 0.1-0.8 0.2-1.2s0.3-0.7 0.5-1c0.5-0.5 0.9-1 1.4-1.3s0.9-0.6 1.4-0.9c0.4-0.3 0.8-0.5 1-0.9 0.3-0.3 0.4-0.7 0.4-1.2 0-0.6-0.2-1-0.5-1.4-0.4-0.3-0.8-0.5-1.4-0.5s-1 0.2-1.4 0.7c-0.3 0.4-0.5 1-0.5 1.6h-0.8z"/>
                <path class="st6" d="m183.5 425.9c0.6 0 1.2 0.1 1.6 0.4s0.7 0.7 0.9 1.1c0.2 0.5 0.3 1 0.4 1.5s0.1 1.1 0.1 1.6c0 0.6 0 1.1-0.1 1.7-0.1 0.5-0.2 1-0.5 1.4-0.4 0.9-1.2 1.3-2.4 1.4-1.2 0-1.9-0.5-2.4-1.4-0.2-0.4-0.4-0.9-0.4-1.5-0.1-0.5-0.1-1.1-0.1-1.7s0-1.1 0.1-1.7c0.1-0.5 0.2-1 0.4-1.4s0.5-0.8 0.9-1c0.4-0.3 0.9-0.4 1.5-0.4zm2.2 4.5c0-0.5 0-1-0.1-1.4-0.1-0.5-0.2-0.9-0.3-1.2-0.3-0.8-0.9-1.2-1.8-1.2-0.8 0-1.4 0.4-1.7 1.2s-0.4 1.7-0.4 2.7c0 1.2 0.1 2.1 0.5 2.7 0.3 0.7 0.9 1 1.7 1.1 0.5 0 0.8-0.1 1.1-0.4 0.3-0.2 0.5-0.5 0.7-0.9 0.2-0.8 0.3-1.6 0.3-2.6z"/>
                <path class="st6" d="m190.6 425.9c0.6 0 1.2 0.1 1.6 0.4s0.7 0.7 0.9 1.1c0.2 0.5 0.3 1 0.4 1.5s0.1 1.1 0.1 1.6c0 0.6 0 1.1-0.1 1.7-0.1 0.5-0.2 1-0.5 1.4-0.4 0.9-1.2 1.3-2.4 1.4-1.2 0-1.9-0.5-2.4-1.4-0.2-0.4-0.4-0.9-0.4-1.5-0.1-0.5-0.1-1.1-0.1-1.7s0-1.1 0.1-1.7c0.1-0.5 0.2-1 0.4-1.4s0.5-0.8 0.9-1c0.4-0.3 0.9-0.4 1.5-0.4zm2.1 4.5c0-0.5 0-1-0.1-1.4-0.1-0.5-0.2-0.9-0.3-1.2-0.3-0.8-0.9-1.2-1.8-1.2-0.8 0-1.4 0.4-1.7 1.2s-0.4 1.7-0.4 2.7c0 1.2 0.1 2.1 0.5 2.7 0.3 0.7 0.9 1 1.7 1.1 0.5 0 0.8-0.1 1.1-0.4 0.3-0.2 0.5-0.5 0.7-0.9 0.2-0.8 0.4-1.6 0.3-2.6z"/>
                <path class="st6" d="m197.7 425.9c0.6 0 1.2 0.1 1.6 0.4s0.7 0.7 0.9 1.1c0.2 0.5 0.3 1 0.4 1.5s0.1 1.1 0.1 1.6c0 0.6 0 1.1-0.1 1.7-0.1 0.5-0.2 1-0.5 1.4-0.4 0.9-1.2 1.3-2.4 1.4-1.2 0-1.9-0.5-2.4-1.4-0.2-0.4-0.4-0.9-0.4-1.5-0.1-0.5-0.1-1.1-0.1-1.7s0-1.1 0.1-1.7c0.1-0.5 0.2-1 0.4-1.4s0.5-0.8 0.9-1c0.4-0.3 0.9-0.4 1.5-0.4zm2.1 4.5c0-0.5 0-1-0.1-1.4-0.1-0.5-0.2-0.9-0.3-1.2-0.3-0.8-0.9-1.2-1.8-1.2-0.8 0-1.4 0.4-1.7 1.2s-0.4 1.7-0.4 2.7c0 1.2 0.1 2.1 0.5 2.7 0.3 0.7 0.9 1 1.7 1.1 0.5 0 0.8-0.1 1.1-0.4 0.3-0.2 0.5-0.5 0.7-0.9 0.2-0.8 0.3-1.6 0.3-2.6z"/>


                <path class="st6" d="m115.1 428.2h-2.2v-0.5c0.3 0 0.6-0.1 0.9-0.1s0.5-0.1 0.7-0.2 0.4-0.3 0.5-0.5 0.2-0.5 0.3-0.9h0.6v8.9h-0.8v-6.7z"/>
                <path class="st6" d="m119.9 432.8c0.2 1 0.7 1.5 1.7 1.5 0.5 0 0.9-0.1 1.2-0.4s0.6-0.6 0.7-1c0.2-0.4 0.3-0.8 0.4-1.3s0.1-0.9 0.1-1.3c-0.5 0.9-1.3 1.4-2.3 1.4-0.8 0-1.5-0.3-1.9-0.8-0.5-0.5-0.7-1.2-0.7-2.1s0.2-1.6 0.7-2.1c0.4-0.5 1.1-0.8 2.1-0.8 1.1 0 1.9 0.5 2.4 1.3 0.4 0.9 0.7 1.9 0.6 3.2-0.1 3.1-1.1 4.6-3.2 4.6-0.7 0-1.3-0.2-1.7-0.5-0.5-0.4-0.7-0.9-0.8-1.6h0.7zm1.8-6.2c-1.3 0.1-2 0.8-2 2.3 0 1.4 0.7 2.1 2 2.2 0.6 0 1.1-0.2 1.4-0.7 0.3-0.4 0.5-0.9 0.5-1.6s-0.2-1.2-0.5-1.6-0.7-0.6-1.4-0.6z"/>
                <path class="st6" d="m126.9 432.8c0.2 1 0.7 1.5 1.7 1.5 0.5 0 0.9-0.1 1.2-0.4s0.6-0.6 0.7-1c0.2-0.4 0.3-0.8 0.4-1.3s0.1-0.9 0.1-1.3c-0.5 0.9-1.3 1.4-2.3 1.4-0.8 0-1.5-0.3-1.9-0.8-0.5-0.5-0.7-1.2-0.7-2.1s0.2-1.6 0.7-2.1c0.4-0.5 1.1-0.8 2.1-0.8 1.1 0 1.9 0.5 2.4 1.3 0.4 0.9 0.7 1.9 0.6 3.2-0.1 3.1-1.1 4.6-3.2 4.6-0.7 0-1.3-0.2-1.7-0.5-0.5-0.4-0.7-0.9-0.8-1.6h0.7zm1.9-6.2c-1.3 0.1-2 0.8-2 2.3 0 1.4 0.7 2.1 2 2.2 0.6 0 1.1-0.2 1.4-0.7 0.3-0.4 0.5-0.9 0.5-1.6s-0.2-1.2-0.5-1.6-0.8-0.6-1.4-0.6z"/>
                <path class="st6" d="m134.6 430c-0.4-0.3-0.7-0.5-0.9-0.8s-0.3-0.6-0.3-1.2 0.3-1.2 0.7-1.6c0.5-0.4 1-0.6 1.7-0.6s1.3 0.2 1.8 0.5 0.8 0.9 0.8 1.7c0 0.9-0.4 1.6-1.2 2 1 0.4 1.5 1.1 1.5 2.2 0 0.9-0.3 1.5-0.8 2s-1.3 0.7-2.2 0.7c-0.7 0-1.3-0.2-1.8-0.7-0.6-0.4-0.9-1.1-0.9-2 0.1-1 0.6-1.8 1.6-2.2zm1.4 0.4c-0.6 0-1.1 0.2-1.5 0.5s-0.6 0.8-0.6 1.5c0 0.6 0.2 1 0.6 1.4s0.9 0.6 1.6 0.6c0.6 0 1.1-0.2 1.5-0.6s0.6-0.8 0.6-1.4-0.2-1.1-0.6-1.4c-0.5-0.4-1-0.6-1.6-0.6zm0-3.8c-0.5 0-0.9 0.1-1.2 0.4s-0.5 0.7-0.5 1.2 0.2 0.9 0.6 1.2 0.8 0.4 1.3 0.4 0.9-0.1 1.2-0.4 0.5-0.7 0.5-1.3c-0.2-1.1-0.8-1.5-1.9-1.5z"/>




</svg>
