<?xml version="1.0" encoding="UTF-8"?>
<svg xmlns="http://www.w3.org/2000/svg" version="1.1" viewBox="0 0 910 510">
  <!-- Generator: Adobe Illustrator 28.6.0, SVG Export Plug-In . SVG Version: 1.2.0 Build 709)  -->
  <g>
    <g id="_Слой_1" data-name="Слой_1">
      <path d="M471.1,96.1v28.7c0,4,3.2,7.2,7.2,7.2h28.7" fill="none" stroke="#b3b3b3" stroke-linecap="round" stroke-linejoin="round" stroke-width="8"/>
      <path d="M492.7,225.4h-71.8c-7.9,0-14.4-6.4-14.4-14.4v-100.6c0-7.9,6.4-14.4,14.4-14.4h50.3l35.9,35.9v79c0,7.9-6.4,14.4-14.4,14.4Z" fill="none" stroke="#b3b3b3" stroke-linecap="round" stroke-linejoin="round" stroke-width="8"/>
      <path d="M435.2,196.7h43.1" fill="none" stroke="#b3b3b3" stroke-linecap="round" stroke-linejoin="round" stroke-width="8"/>
      <path d="M435.2,168h43.1" fill="none" stroke="#b3b3b3" stroke-linecap="round" stroke-linejoin="round" stroke-width="8"/>
      <path d="M325.6,136.8v28.7c0,4,3.2,7.2,7.2,7.2h28.7" fill="none" stroke="#b3b3b3" stroke-linecap="round" stroke-linejoin="round" stroke-width="8"/>
      <path d="M347.2,266.1h-71.8c-7.9,0-14.4-6.4-14.4-14.4v-100.6c0-7.9,6.4-14.4,14.4-14.4h50.3l35.9,35.9v79c0,7.9-6.4,14.4-14.4,14.4Z" fill="none" stroke="#b3b3b3" stroke-linecap="round" stroke-linejoin="round" stroke-width="8"/>
      <path d="M289.7,237.4h43.1" fill="none" stroke="#b3b3b3" stroke-linecap="round" stroke-linejoin="round" stroke-width="8"/>
      <path d="M289.7,208.7h43.1" fill="none" stroke="#b3b3b3" stroke-linecap="round" stroke-linejoin="round" stroke-width="8"/>
      <path d="M616.7,136.8v28.7c0,4,3.2,7.2,7.2,7.2h28.7" fill="none" stroke="#b3b3b3" stroke-linecap="round" stroke-linejoin="round" stroke-width="8"/>
      <path d="M638.2,266.1h-71.8c-7.9,0-14.4-6.4-14.4-14.4v-100.6c0-7.9,6.4-14.4,14.4-14.4h50.3l35.9,35.9v79c0,7.9-6.4,14.4-14.4,14.4Z" fill="none" stroke="#b3b3b3" stroke-linecap="round" stroke-linejoin="round" stroke-width="8"/>
      <path d="M580.8,237.4h43.1" fill="none" stroke="#b3b3b3" stroke-linecap="round" stroke-linejoin="round" stroke-width="8"/>
      <path d="M580.8,208.7h43.1" fill="none" stroke="#b3b3b3" stroke-linecap="round" stroke-linejoin="round" stroke-width="8"/>
      <path d="M762.2,180.5v28.7c0,4,3.2,7.2,7.2,7.2h28.7" fill="none" stroke="#b3b3b3" stroke-linecap="round" stroke-linejoin="round" stroke-width="8"/>
      <path d="M783.7,309.8h-71.8c-7.9,0-14.4-6.4-14.4-14.4v-100.6c0-7.9,6.4-14.4,14.4-14.4h50.3l35.9,35.9v79c0,7.9-6.4,14.4-14.4,14.4Z" fill="none" stroke="#b3b3b3" stroke-linecap="round" stroke-linejoin="round" stroke-width="8"/>
      <path d="M726.3,281.1h43.1" fill="none" stroke="#b3b3b3" stroke-linecap="round" stroke-linejoin="round" stroke-width="8"/>
      <path d="M726.3,252.3h43.1" fill="none" stroke="#b3b3b3" stroke-linecap="round" stroke-linejoin="round" stroke-width="8"/>
      <path d="M180.1,180.5v28.7c0,4,3.2,7.2,7.2,7.2h28.7" fill="none" stroke="#b3b3b3" stroke-linecap="round" stroke-linejoin="round" stroke-width="8"/>
      <path d="M201.6,309.8h-71.8c-7.9,0-14.4-6.4-14.4-14.4v-100.6c0-7.9,6.4-14.4,14.4-14.4h50.3l35.9,35.9v79c0,7.9-6.4,14.4-14.4,14.4Z" fill="none" stroke="#b3b3b3" stroke-linecap="round" stroke-linejoin="round" stroke-width="8"/>
      <path d="M144.2,281.1h43.1" fill="none" stroke="#b3b3b3" stroke-linecap="round" stroke-linejoin="round" stroke-width="8"/>
      <path d="M144.2,252.3h43.1" fill="none" stroke="#b3b3b3" stroke-linecap="round" stroke-linejoin="round" stroke-width="8"/>
      <path d="M103,275h34.3l25.7,25.7h59.9c9.5,0,17.1,7.7,17.1,17.1v68.5c0,9.5-7.7,17.1-17.1,17.1h-119.9c-9.5,0-17.1-7.7-17.1-17.1v-94.2c0-9.5,7.7-17.1,17.1-17.1" fill="#fff" stroke="#f58233" stroke-linecap="round" stroke-linejoin="round" stroke-width="14"/>
      <path d="M687.1,280.4h34.3l25.7,25.7h59.9c9.5,0,17.1,7.7,17.1,17.1v68.5c0,9.5-7.7,17.1-17.1,17.1h-119.9c-9.5,0-17.1-7.7-17.1-17.1v-94.2c0-9.5,7.7-17.1,17.1-17.1" fill="#fff" stroke="#056fd2" stroke-linecap="round" stroke-linejoin="round" stroke-width="14"/>
      <g>
        <path d="M406.2,312.1h97.6" fill="#fff" stroke="#056fd2" stroke-linecap="round" stroke-linejoin="round" stroke-width="14"/>
        <path d="M487.5,350.1l16.3,16.3-16.3,16.3" fill="#fff" stroke="#f58233" stroke-linecap="round" stroke-linejoin="round" stroke-width="14"/>
        <path d="M503.8,366.4h-97.6" fill="#fff" stroke="#f58233" stroke-linecap="round" stroke-linejoin="round" stroke-width="14"/>
        <path d="M422.5,295.9l-16.3,16.3,16.3,16.3" fill="none" stroke="#056fd2" stroke-linecap="round" stroke-linejoin="round" stroke-width="14"/>
      </g>
    </g>
  </g>
</svg>